…
$manifest_path
[1] "/Users/daniel.cavalli/Documents/personal/tcc-ie-ufrj-2024/data/outputs/raw/diagnostics/dataset_mapbiomas_municipio_culturas_irrigadas_2003_2021_20251008_pipeline_manifest.csv"

$manifest
# A tibble: 35 × 4
   stage      name                  path                               timestamp
   <chr>      <chr>                 <chr>                              <chr>    
 1 prep       microrregiao          /Users/daniel.cavalli/Documents/p… 2025-11-…
 2 prep       municipio             /Users/daniel.cavalli/Documents/p… 2025-11-…
 3 prep       summary               /Users/daniel.cavalli/Documents/p… 2025-11-…
 4 estimation att_results           /Users/daniel.cavalli/Documents/p… 2025-11-…
 5 estimation agg_overall           /Users/daniel.cavalli/Documents/p… 2025-11-…
 6 estimation agg_event             /Users/daniel.cavalli/Documents/p… 2025-11-…
 7 estimation att_summary           /Users/daniel.cavalli/Documents/p… 2025-11-…
 8 estimation covariates            /Users/daniel.cavalli/Documents/p… 2025-11-…
 9 estimation covariate_diagnostics /Users/daniel.cavalli/Documents/p… 2025-11-…
10 estimation weights_analysis      /Users/daniel.cavalli/Documents/p… 2025-11-…
# ℹ 25 more rows
$prep
$prep$label
[1] "dataset_mapbiomas_municipio_culturas_irrigadas_2003_2021_20251008"

$prep$microrregiao_path
[1] "/Users/daniel.cavalli/Documents/personal/tcc-ie-ufrj-2024/data/outputs/raw/prep/dataset_mapbiomas_municipio_culturas_irrigadas_2003_2021_20251008_df_microrregiao.rds"

$prep$municipio_path
[1] "/Users/daniel.cavalli/Documents/personal/tcc-ie-ufrj-2024/data/outputs/raw/prep/dataset_mapbiomas_municipio_culturas_irrigadas_2003_2021_20251008_df_municipio.rds"

$prep$summary_path
[1] "/Users/daniel.cavalli/Documents/personal/tcc-ie-ufrj-2024/data/outputs/raw/prep/dataset_mapbiomas_municipio_culturas_irrigadas_2003_2021_20251008_prep_summary.csv"

$prep$df_microrregiao
# A tibble: 10,602 × 26
   id_microrregiao sigla_uf   ano populacao_total   pib_total pib_agropecuario
             <dbl> <chr>    <dbl>           <dbl>       <dbl>            <dbl>
 1           11001 RO        2003          448419  3173358000        170001000
 2           11001 RO        2004          497775  3885396000        175586000
 3           11001 RO        2005          485002  4385122000        195425000
 4           11001 RO        2006          497936  4723308000        192598000
 5           11001 RO        2007          474532  5169521000        230175000
 6           11001 RO        2008          486884  6118513000        340318000
 7           11001 RO        2009          493445  7786946000        367499000
 8           11001 RO        2010          540320 10298189000        426759000
 9           11001 RO        2011          550089 12509934000        508095000
10           11001 RO        2012          559543 13425222000        633448000
# ℹ 10,592 more rows
# ℹ 20 more variables: area_total_ha <dbl>, area_cana <dbl>,
#   primeiro_ano_tratamento <dbl>, tratado <int>, pib_per_capita <dbl>,
#   area_plantada <dbl>, n_estacoes_uf <int>, n_microregioes_uf <int>,
#   densidade_estacoes_uf <dbl>, gname <dbl>, never_treated <lgl>,
#   treated <int>, log_area_plantada <dbl>, log_populacao <dbl>,
#   log_pib_per_capita <dbl>, log_pib_agro <dbl>, pib_nao_agro <dbl>, …

$prep$df_municipio
# A tibble: 105,764 × 56
     ano id_municipio id_microrregiao sigla_uf primeiro_ano_tratamento tratado
   <dbl>        <dbl>           <dbl> <chr>                      <dbl>   <dbl>
 1  2003      1100015           11006 RO                             0       0
 2  2004      1100015           11006 RO                             0       0
 3  2005      1100015           11006 RO                             0       0
 4  2006      1100015           11006 RO                             0       0
 5  2007      1100015           11006 RO                             0       0
 6  2008      1100015           11006 RO                             0       0
 7  2009      1100015           11006 RO                             0       0
 8  2010      1100015           11006 RO                             0       0
 9  2011      1100015           11006 RO                             0       0
10  2012      1100015           11006 RO                             0       0
# ℹ 105,754 more rows
# ℹ 50 more variables: pos_tratamento <dbl>, populacao_total <dbl>,
#   pib_total <dbl>, pib_per_capita <dbl>, pib_agropecuario <dbl>,
#   area_total_ha <dbl>, pct_area_agropecuaria <dbl>, pct_area_urbana <dbl>,
#   razao_agropecuaria_urbana <dbl>, municipio_urbano <dbl>,
#   area_plantada_cana...17 <dbl>, area_colhida_cana...18 <dbl>,
#   quantidade_cana <dbl>, produtividade_cana <dbl>, valor_cana <dbl>, …
…
$uf
$uf$label
[1] "dataset_mapbiomas_municipio_culturas_irrigadas_2003_2021_20251008"

$uf$results
# A tibble: 0 × 0

$uf$artifact_path
[1] NA

$uf$panel
# A tibble: 513 × 14
   sigla_uf   ano log_pib_agro log_pib_nao_agro log_area_plantada log_populacao
   <chr>    <dbl>        <dbl>            <dbl>             <dbl>         <dbl>
 1 AC        2003          NaN              NaN                 0          13.3
 2 AC        2004          NaN              NaN                 0          13.4
 3 AC        2005          NaN              NaN                 0          13.4
 4 AC        2006          NaN              NaN                 0          13.4
 5 AC        2007          NaN              NaN                 0          13.4
 6 AC        2008          NaN              NaN                 0          13.4
 7 AC        2009          NaN              NaN                 0          13.4
 8 AC        2010          NaN              NaN                 0          13.5
 9 AC        2011          NaN              NaN                 0          13.5
10 AC        2012          NaN              NaN                 0          13.5
# ℹ 503 more rows
# ℹ 8 more variables: log_pib_per_capita <dbl>, treated_share <dbl>,
#   gname_candidate <dbl>, gname <dbl>, id_uf <int>, treated <int>,
#   never_treated <lgl>, log_densidade_estacoes_uf <dbl>
…
$visuals$parallel_trends_agro
$visuals$parallel_trends_agro$label
[1] "dataset_mapbiomas_municipio_culturas_irrigadas_2003_2021_20251008"

$visuals$parallel_trends_agro$outcome
[1] "log_pib_agro"

$visuals$parallel_trends_agro$plot

$visuals$parallel_trends_agro$png_path
[1] "/Users/daniel.cavalli/Documents/personal/tcc-ie-ufrj-2024/data/outputs/raw/visuals/dataset_mapbiomas_municipio_culturas_irrigadas_2003_2021_20251008_parallel_trends_log_pib_agro_normalized.png"

$visuals$parallel_trends_agro$data
# A tibble: 32 × 6
   cohort                   time_to_treat mean_outcome se_outcome n_obs baseline
   <fct>                            <dbl>        <dbl>      <dbl> <int>    <dbl>
 1 "Early Adopters\n(2003-…            -4      -0.114      0.111     80     18.9
 2 "Early Adopters\n(2003-…            -3       0.0107     0.0765   159     18.9
 3 "Early Adopters\n(2003-…            -2       0.0501     0.0717   161     18.9
 4 "Early Adopters\n(2003-…            -1       0          0.0673   168     18.9
 5 "Early Adopters\n(2003-…             0       0.0730     0.0652   188     18.9
 6 "Early Adopters\n(2003-…             1       0.205      0.0657   203     18.9
 7 "Early Adopters\n(2003-…             2       0.366      0.0658   215     18.9
 8 "Early Adopters\n(2003-…             3       0.376      0.0653   220     18.9
 9 "Early Adopters\n(2003-…             4       0.455      0.0639   220     18.9
10 "Early Adopters\n(2003-…             5       0.552      0.0655   220     18.9
# ℹ 22 more rows

$visuals$parallel_trends_nonagro
$visuals$parallel_trends_nonagro$label
[1] "dataset_mapbiomas_municipio_culturas_irrigadas_2003_2021_20251008"

$visuals$parallel_trends_nonagro$outcome
[1] "log_pib_nao_agro"

$visuals$parallel_trends_nonagro$plot

$visuals$parallel_trends_nonagro$png_path
[1] "/Users/daniel.cavalli/Documents/personal/tcc-ie-ufrj-2024/data/outputs/raw/visuals/dataset_mapbiomas_municipio_culturas_irrigadas_2003_2021_20251008_parallel_trends_log_pib_nao_agro_normalized.png"

$visuals$parallel_trends_nonagro$data
# A tibble: 32 × 6
   cohort                   time_to_treat mean_outcome se_outcome n_obs baseline
   <fct>                            <dbl>        <dbl>      <dbl> <int>    <dbl>
 1 "Early Adopters\n(2003-…            -4       -0.694     0.117     80     21.1
 2 "Early Adopters\n(2003-…            -3       -0.221     0.0967   159     21.1
 3 "Early Adopters\n(2003-…            -2       -0.102     0.0962   161     21.1
 4 "Early Adopters\n(2003-…            -1        0         0.0955   168     21.1
 5 "Early Adopters\n(2003-…             0        0.168     0.0914   188     21.1
 6 "Early Adopters\n(2003-…             1        0.295     0.0888   203     21.1
 7 "Early Adopters\n(2003-…             2        0.429     0.0853   215     21.1
 8 "Early Adopters\n(2003-…             3        0.577     0.0854   220     21.1
 9 "Early Adopters\n(2003-…             4        0.707     0.0859   220     21.1
10 "Early Adopters\n(2003-…             5        0.843     0.0857   220     21.1
# ℹ 22 more rows

$visuals$parallel_trends_by_gname
$visuals$parallel_trends_by_gname$label
[1] "dataset_mapbiomas_municipio_culturas_irrigadas_2003_2021_20251008"

$visuals$parallel_trends_by_gname$outcome
[1] "log_pib_agro"

$visuals$parallel_trends_by_gname$plot

$visuals$parallel_trends_by_gname$png_path
[1] "/Users/daniel.cavalli/Documents/personal/tcc-ie-ufrj-2024/data/outputs/raw/visuals/dataset_mapbiomas_municipio_culturas_irrigadas_2003_2021_20251008_parallel_trends_by_gname_pib_agro.png"

$visuals$parallel_trends_by_gname$data
# A tibble: 361 × 7
   gname   ano mean_outcome se_outcome n_units post_treatment group_label       
   <dbl> <dbl>        <dbl>      <dbl>   <int> <lgl>          <chr>             
 1  2000  2003         18.5      0.602       5 TRUE           Tratados em 2000 …
 2  2000  2004         18.5      0.539       5 TRUE           Tratados em 2000 …
 3  2000  2005         18.4      0.514       5 TRUE           Tratados em 2000 …
 4  2000  2006         18.4      0.491       5 TRUE           Tratados em 2000 …
 5  2000  2007         18.5      0.511       5 TRUE           Tratados em 2000 …
 6  2000  2008         18.6      0.536       5 TRUE           Tratados em 2000 …
 7  2000  2009         18.8      0.548       5 TRUE           Tratados em 2000 …
 8  2000  2010         18.9      0.587       5 TRUE           Tratados em 2000 …
 9  2000  2011         19.1      0.659       5 TRUE           Tratados em 2000 …
10  2000  2012         19.1      0.599       5 TRUE           Tratados em 2000 …
# ℹ 351 more rows
…
